…
    ## ── Column specification ────────────────────────────────────────────────────────
    ## Delimiter: ","
    ## chr (9): uid, victim_last, victim_first, victim_race, victim_age, victim_sex...
    ## dbl (3): reported_date, lat, lon

    ## 
    ## ℹ Use `spec()` to retrieve the full column specification for this data.
    ## ℹ Specify the column types or set `show_col_types = FALSE` to quiet this message.

``` r
homicide_df%>%count(city_state)
```

    ## # A tibble: 51 x 2
    ##    city_state         n
    ##    <chr>          <int>
    ##  1 Albuquerque,NM   378
    ##  2 Atlanta,GA       973
    ##  3 Baltimore,MD    2827
    ##  4 Baton Rouge,LA   424
    ##  5 Birmingham,AL    800
    ##  6 Boston,MA        614
    ##  7 Buffalo,NY       521
    ##  8 Charlotte,NC     687
    ##  9 Chicago,IL      5535
    ## 10 Cincinnati,OH    694
    ## # … with 41 more rows
…
    ## Warning in prop.test(x = city_summary %>% pull(unsolved), n = city_summary %>% :
    ## Chi-squared approximation may be incorrect

``` r
results_df
```

    ## # A tibble: 51 x 4
    ##    city_state     estimate conf.low conf.high
    ##    <chr>             <dbl>    <dbl>     <dbl>
    ##  1 Albuquerque,NM    0.386    0.337     0.438
    ##  2 Atlanta,GA        0.383    0.353     0.415
    ##  3 Baltimore,MD      0.646    0.628     0.663
    ##  4 Baton Rouge,LA    0.462    0.414     0.511
    ##  5 Birmingham,AL     0.434    0.399     0.469
    ##  6 Boston,MA         0.505    0.465     0.545
    ##  7 Buffalo,NY        0.612    0.569     0.654
    ##  8 Charlotte,NC      0.300    0.266     0.336
    ##  9 Chicago,IL        0.736    0.724     0.747
    ## 10 Cincinnati,OH     0.445    0.408     0.483
    ## # … with 41 more rows
…
### Introduce data

``` r
set.seed(10)
iris_with_missing = iris %>% 
  map_df(~replace(.x, sample(1:150, 20), NA)) %>%
  mutate(Species = as.character(Species))

iris_with_missing = 
  iris_with_missing%>%
  janitor::clean_names()
iris_with_missing
```

    ## # A tibble: 150 x 5
    ##    sepal_length sepal_width petal_length petal_width species
    ##           <dbl>       <dbl>        <dbl>       <dbl> <chr>  
    ##  1          5.1         3.5          1.4         0.2 setosa 
    ##  2          4.9         3            1.4         0.2 setosa 
    ##  3          4.7         3.2          1.3         0.2 setosa 
    ##  4          4.6         3.1          1.5        NA   setosa 
    ##  5          5           3.6          1.4         0.2 setosa 
    ##  6          5.4         3.9          1.7         0.4 setosa 
    ##  7         NA           3.4          1.4         0.3 setosa 
    ##  8          5           3.4          1.5         0.2 setosa 
    ##  9          4.4         2.9          1.4         0.2 setosa 
    ## 10          4.9         3.1         NA           0.1 setosa 
    ## # … with 140 more rows
…
